%YAML 1.1
%TAG !u! tag:unity3d.com,2011:
--- !u!1 &7905348148445449192
GameObject:
  m_ObjectHideFlags: 0
  m_CorrespondingSourceObject: {fileID: 0}
  m_PrefabInstance: {fileID: 0}
  m_PrefabAsset: {fileID: 0}
  serializedVersion: 6
  m_Component:
  - component: {fileID: 7905348148445449190}
  - component: {fileID: 5000231123258838379}
  m_Layer: 0
  m_Name: UI_PauseResumeGame
  m_TagString: Untagged
  m_Icon: {fileID: 0}
  m_NavMeshLayer: 0
  m_StaticEditorFlags: 0
  m_IsActive: 1
--- !u!4 &7905348148445449190
Transform:
  m_ObjectHideFlags: 0
  m_CorrespondingSourceObject: {fileID: 0}
  m_PrefabInstance: {fileID: 0}
  m_PrefabAsset: {fileID: 0}
  m_GameObject: {fileID: 7905348148445449192}
  m_LocalRotation: {x: 0, y: 0, z: 0, w: 1}
  m_LocalPosition: {x: 0, y: 0, z: 0}
  m_LocalScale: {x: 1, y: 1, z: 1}
  m_Children: []
  m_Father: {fileID: 0}
  m_RootOrder: 0
  m_LocalEulerAnglesHint: {x: 0, y: 0, z: 0}
--- !u!114 &5000231123258838379
MonoBehaviour:
  m_ObjectHideFlags: 0
  m_CorrespondingSourceObject: {fileID: 0}
  m_PrefabInstance: {fileID: 0}
  m_PrefabAsset: {fileID: 0}
  m_GameObject: {fileID: 7905348148445449192}
  m_Enabled: 1
  m_EditorHideFlags: 0
  m_Script: {fileID: 11500000, guid: 282d1cc5a9af86942bd253a792413c28, type: 3}
  m_Name: 
  m_EditorClassIdentifier: 
  _OnGamePaused: {fileID: 11400000, guid: 07cb000a808f7bd41bf38ee0f6d00c5b, type: 2}
  _OnResumeGame: {fileID: 11400000, guid: 3be95b337d6c3934b82544d8fe2868d1, type: 2}
  _panelPause: {fileID: 0}
  _pauseButton: {fileID: 0}
  _resumeButton: {fileID: 0}
